Lab 10 Homework
…
names(deserts)

##  [1] "record_id"       "month"           "day"             "year"           
##  [5] "plot_id"         "species_id"      "sex"             "hindfoot_length"
##  [9] "weight"          "genus"           "species"         "taxa"           
## [13] "plot_type"

How many genera and species are represented in the data? What are the total number of observations? Which species is most/ least frequently sampled in the study?

deserts %>% 
  count(genus, sort=T)

## # A tibble: 26 x 2
##    genus                n
##    <chr>            <int>
##  1 Dipodomys        16167
##  2 Chaetodipus       6029
##  3 Onychomys         3267
##  4 Reithrodontomys   2694
##  5 Peromyscus        2234
##  6 Perognathus       1629
##  7 Neotoma           1252
##  8 Ammospermophilus   437
##  9 Amphispiza         303
## 10 Spermophilus       249
## #  with 16 more rows

deserts %>% 
  count(species, sort=T)

## # A tibble: 40 x 2
##    species          n
##    <chr>        <int>
##  1 merriami     10596
##  2 penicillatus  3123
##  3 ordii         3027
##  4 baileyi       2891
##  5 megalotis     2609
##  6 spectabilis   2504
##  7 torridus      2249
##  8 flavus        1597
##  9 eremicus      1299
## 10 albigula      1252
## #  with 30 more rows
…
Which two species have, on average, the highest weight? Once you have identified them, make a new column that is a ratio of weight to hindfoot_length. Make a plot that shows the range of this new ratio and fill by sex.

deserts %>% 
  select(species_id, weight) %>% 
  filter(weight!="NA") %>% 
  group_by(species_id) %>% 
  summarize(mean_weight=mean(weight)) %>% 
  arrange(desc(mean_weight))

## `summarise()` ungrouping output (override with `.groups` argument)

## # A tibble: 25 x 2
##    species_id mean_weight
##    <chr>            <dbl>
##  1 NL               159. 
##  2 DS               120. 
##  3 SS                93.5
##  4 SH                73.1
##  5 SF                58.9
##  6 SO                55.4
##  7 DO                48.9
##  8 DM                43.2
##  9 PB                31.7
## 10 OL                31.6
## #  with 15 more rows
…
