…
```r
gapminder_tidy %>% 
  group_by(continent, year) %>% 
  summarize(median_life_exp=median(life_exp),
       min_life_exp=min(life_exp),
       max_life_exp=max(life_exp)) 
```

```
## `summarise()` regrouping output by 'continent' (override with `.groups` argument)
```

```
## # A tibble: 60 x 5
## # Groups:   continent [5]
##    continent year  median_life_exp min_life_exp max_life_exp
##    <fct>     <fct>           <dbl>        <dbl>        <dbl>
##  1 Africa    1952             38.8         30           52.7
##  2 Africa    1957             40.6         31.6         58.1
##  3 Africa    1962             42.6         32.8         60.2
##  4 Africa    1967             44.7         34.1         61.6
##  5 Africa    1972             47.0         35.4         64.3
##  6 Africa    1977             49.3         36.8         67.1
##  7 Africa    1982             50.8         38.4         69.9
##  8 Africa    1987             51.6         39.9         71.9
##  9 Africa    1992             52.4         23.6         73.6
## 10 Africa    1997             52.8         36.1         74.8
## # … with 50 more rows
```
…
**5. How has life expectancy changed between 1952-2007 for each continent?**

```r
gapminder_tidy %>% 
  group_by(continent, year) %>% 
  summarize(mean_life_exp=mean(life_exp))
```

```
## `summarise()` regrouping output by 'continent' (override with `.groups` argument)
```

```
## # A tibble: 60 x 3
## # Groups:   continent [5]
##    continent year  mean_life_exp
##    <fct>     <fct>         <dbl>
##  1 Africa    1952           39.1
##  2 Africa    1957           41.3
##  3 Africa    1962           43.3
##  4 Africa    1967           45.3
##  5 Africa    1972           47.5
##  6 Africa    1977           49.6
##  7 Africa    1982           51.6
##  8 Africa    1987           53.3
##  9 Africa    1992           53.6
## 10 Africa    1997           53.6
## # … with 50 more rows
```
…
**7. Which countries have had the largest population growth since 1952?**

```r
gapminder_tidy_growth <- gapminder_tidy %>% 
  group_by(country) %>% 
  filter(year=="1952" | year=="2007") %>% 
  mutate(pop_growth=pop-lag(pop, default=first(pop))) %>% 
  arrange(desc(pop_growth))
gapminder_tidy_growth
```

```
## # A tibble: 284 x 7
## # Groups:   country [142]
##    country       continent year  life_exp        pop gdp_percap pop_growth
##    <fct>         <fct>     <fct>    <dbl>      <int>      <dbl>      <int>
##  1 China         Asia      2007      73.0 1318683096      4959.  762419569
##  2 India         Asia      2007      64.7 1110396331      2452.  738396331
##  3 United States Americas  2007      78.2  301139947     42952.  143586947
##  4 Indonesia     Asia      2007      70.6  223547000      3541.  141495000
##  5 Brazil        Americas  2007      72.4  190010647      9066.  133408087
##  6 Pakistan      Asia      2007      65.5  169270617      2606.  127924057
##  7 Bangladesh    Asia      2007      64.1  150448339      1391.  103561480
##  8 Nigeria       Africa    2007      46.9  135031164      2014.  101912068
##  9 Mexico        Americas  2007      76.2  108700891     11978.   78556574
## 10 Philippines   Asia      2007      71.7   91077287      3190.   68638596
## # … with 274 more rows
```
…
