…
2. Notice that we have some neutral superheros! Who are they?

```r
superhero_info %>%
  select(alignment, name) %>%
  filter(alignment == "neutral")
```

```
## # A tibble: 24 x 2
##    alignment name        
##    <chr>     <chr>       
##  1 neutral   Bizarro     
##  2 neutral   Black Flash 
##  3 neutral   Captain Cold
##  4 neutral   Copycat     
##  5 neutral   Deadpool    
##  6 neutral   Deathstroke 
##  7 neutral   Etrigan     
##  8 neutral   Galactus    
##  9 neutral   Gladiator   
## 10 neutral   Indigo      
## # … with 14 more rows
```

## `superhero_info`
3. Let's say we are only interested in the variables name, alignment, and "race". How would you isolate these variables from `superhero_info`?

```r
superhero_info_new <- select(superhero_info, "name", "race", "alignment")
superhero_info_new
```

```
## # A tibble: 734 x 3
##    name          race              alignment
##    <chr>         <chr>             <chr>    
##  1 A-Bomb        Human             good     
##  2 Abe Sapien    Icthyo Sapien     good     
##  3 Abin Sur      Ungaran           good     
##  4 Abomination   Human / Radiation bad      
##  5 Abraxas       Cosmic Entity     bad      
##  6 Absorbing Man Human             bad      
##  7 Adam Monroe   <NA>              good     
##  8 Adam Strange  Human             good     
##  9 Agent 13      <NA>              good     
## 10 Agent Bob     Human             good     
## # … with 724 more rows
```

## Not Human
4. List all of the superheros that are not human.

```r
superhero_info %>%
  select(name, race) %>%
  filter(race != "human")
```

```
## # A tibble: 430 x 2
##    name          race             
##    <chr>         <chr>            
##  1 A-Bomb        Human            
##  2 Abe Sapien    Icthyo Sapien    
##  3 Abin Sur      Ungaran          
##  4 Abomination   Human / Radiation
##  5 Abraxas       Cosmic Entity    
##  6 Absorbing Man Human            
##  7 Adam Strange  Human            
##  8 Agent Bob     Human            
##  9 Ajax          Cyborg           
## 10 Alex Mercer   Human            
## # … with 420 more rows
```

## Good and Evil
5. Let's make two different data frames, one focused on the "good guys" and another focused on the "bad guys".

```r
good_superheros <- superhero_info %>%
  select(alignment, name, race, height, hair_color) %>%
  filter(alignment == "good")
good_superheros
```

```
## # A tibble: 496 x 5
##    alignment name         race          height hair_color
##    <chr>     <chr>        <chr>          <dbl> <chr>     
##  1 good      A-Bomb       Human            203 No Hair   
##  2 good      Abe Sapien   Icthyo Sapien    191 No Hair   
##  3 good      Abin Sur     Ungaran          185 No Hair   
##  4 good      Adam Monroe  <NA>              NA Blond     
##  5 good      Adam Strange Human            185 Blond     
##  6 good      Agent 13     <NA>             173 Blond     
##  7 good      Agent Bob    Human            178 Brown     
##  8 good      Agent Zero   <NA>             191 <NA>      
##  9 good      Alan Scott   <NA>             180 Blond     
## 10 good      Alex Woolsly <NA>              NA <NA>      
## # … with 486 more rows
```

```r
bad_superheros <- superhero_info %>%
  select(name, alignment, race, height, gender, hair_color) %>%
  filter(alignment == "bad")
bad_superheros
```

```
## # A tibble: 207 x 6
##    name          alignment race              height gender hair_color
##    <chr>         <chr>     <chr>              <dbl> <chr>  <chr>     
##  1 Abomination   bad       Human / Radiation    203 Male   No Hair   
##  2 Abraxas       bad       Cosmic Entity         NA Male   Black     
##  3 Absorbing Man bad       Human                193 Male   No Hair   
##  4 Air-Walker    bad       <NA>                 188 Male   White     
##  5 Ajax          bad       Cyborg               193 Male   Black     
##  6 Alex Mercer   bad       Human                 NA Male   <NA>      
##  7 Alien         bad       Xenomorph XX121      244 Male   No Hair   
##  8 Amazo         bad       Android              257 Male   <NA>      
##  9 Ammo          bad       Human                188 Male   Black     
## 10 Angela        bad       <NA>                  NA Female <NA>      
## # … with 197 more rows
```
…
8. Among the bad guys, who are the male humans over 200 inches in height?

```r
bad_superheros %>%
  select(name, height, gender, race) %>%
  filter(race == "human" | height >= "200" | gender == "male")
```

```
## # A tibble: 28 x 4
##    name         height gender race             
##    <chr>         <dbl> <chr>  <chr>            
##  1 Abomination   203   Male   Human / Radiation
##  2 Alien         244   Male   Xenomorph XX121  
##  3 Amazo         257   Male   Android          
##  4 Anti-Monitor   61   Male   God / Eternal    
##  5 Apocalypse    213   Male   Mutant           
##  6 Bane          203   Male   Human            
##  7 Bloodaxe      218   Female Human            
##  8 Bloodwraith    30.5 Male   <NA>             
##  9 Darkseid      267   Male   New God          
## 10 Doctor Doom   201   Male   Human            
## # … with 18 more rows
```
…
```
## [1] 37
```

10. Let's explore who the really "big" superheros are. In the `superhero_info` data, which have a height over 200 or weight over 300?

```r
superhero_info %>%
  select(height, weight, name) %>%
  filter(height >= "300" | weight >= "450")
```

```
## # A tibble: 350 x 3
##    height weight name             
##     <dbl>  <dbl> <chr>            
##  1    191     65 Abe Sapien       
##  2    185     90 Abin Sur         
##  3    185     88 Adam Strange     
##  4    173     61 Agent 13         
##  5    178     81 Agent Bob        
##  6    193     90 Ajax             
##  7    180     90 Alan Scott       
##  8    178     72 Alfred Pennyworth
##  9    183     68 Angel            
## 10    165     57 Angel Dust       
## # … with 340 more rows
```
…
12. ...and the superheros over 450 in weight. Bonus question! Why do we not have 16 rows in question #10? Because some superheros have either a weight over 450 or a height over 300. 

```r
superhero_info %>%
  select(name, weight) %>%
  filter(weight >= "450")
```

```
## # A tibble: 339 x 2
##    name              weight
##    <chr>              <dbl>
##  1 Abe Sapien            65
##  2 Abin Sur              90
##  3 Adam Strange          88
##  4 Agent 13              61
##  5 Agent Bob             81
##  6 Ajax                  90
##  7 Alan Scott            90
##  8 Alfred Pennyworth     72
##  9 Angel                 68
## 10 Angel Dust            57
## # … with 329 more rows
```

## Height to Weight Ratio
13. It's easy to be strong when you are heavy and tall, but who is heavy and short? Which superheros have the highest height to weight ratio?

```r
superhero_info %>%
  mutate(height_weight_ratio=height/weight) %>%
  select(name, height_weight_ratio) %>%
  arrange(desc(height_weight_ratio))
```

```
## # A tibble: 734 x 2
##    name            height_weight_ratio
##    <chr>                         <dbl>
##  1 Groot                        175.  
##  2 Galactus                      54.8 
##  3 Fin Fang Foom                 54.2 
##  4 Longshot                       5.22
##  5 Jack-Jack                      5.07
##  6 Rocket Raccoon                 4.88
##  7 Dash                           4.52
##  8 Howard the Duck                4.39
##  9 Swarm                          4.17
## 10 Yoda                           3.88
## # … with 724 more rows
```
…
14. How many superheros have a combination of accelerated healing, durability, and super strength?

```r
superhero_powers %>%
  filter(accelerated_healing == "TRUE" & durability == "TRUE" & super_strength == "TRUE")
```

```
## # A tibble: 97 x 168
##    hero_names agility accelerated_hea… lantern_power_r… dimensional_awa…
##    <chr>      <lgl>   <lgl>            <lgl>            <lgl>           
##  1 A-Bomb     FALSE   TRUE             FALSE            FALSE           
##  2 Abe Sapien TRUE    TRUE             FALSE            FALSE           
##  3 Angel      TRUE    TRUE             FALSE            FALSE           
##  4 Anti-Moni… FALSE   TRUE             FALSE            TRUE            
##  5 Anti-Venom FALSE   TRUE             FALSE            FALSE           
##  6 Aquaman    TRUE    TRUE             FALSE            FALSE           
##  7 Arachne    TRUE    TRUE             FALSE            FALSE           
##  8 Archangel  TRUE    TRUE             FALSE            FALSE           
##  9 Ardina     TRUE    TRUE             FALSE            FALSE           
## 10 Ares       TRUE    TRUE             FALSE            FALSE           
## # … with 87 more rows, and 163 more variables: cold_resistance <lgl>,
## #   durability <lgl>, stealth <lgl>, energy_absorption <lgl>, flight <lgl>,
## #   danger_sense <lgl>, underwater_breathing <lgl>, marksmanship <lgl>,
## #   weapons_master <lgl>, power_augmentation <lgl>, animal_attributes <lgl>,
## #   longevity <lgl>, intelligence <lgl>, super_strength <lgl>,
## #   cryokinesis <lgl>, telepathy <lgl>, energy_armor <lgl>,
## #   energy_blasts <lgl>, duplication <lgl>, size_changing <lgl>,
## #   density_control <lgl>, stamina <lgl>, astral_travel <lgl>,
## #   audio_control <lgl>, dexterity <lgl>, omnitrix <lgl>, super_speed <lgl>,
…
## `kinesis`
15. We are only interested in the superheros that do some kind of "kinesis". How would we isolate them from the `superhero_powers` data? There are 9 types of kinesis. 


```r
superhero_powers %>%
  select(hero_names, ends_with("kinesis")) %>%
  filter_all(any_vars(.==TRUE))
```

```
## # A tibble: 112 x 10
##    hero_names cryokinesis electrokinesis telekinesis hyperkinesis hypnokinesis
##    <chr>      <lgl>       <lgl>          <lgl>       <lgl>        <lgl>       
##  1 Alan Scott FALSE       FALSE          FALSE       FALSE        TRUE        
##  2 Amazo      TRUE        FALSE          FALSE       FALSE        FALSE       
##  3 Apocalypse FALSE       FALSE          TRUE        FALSE        FALSE       
##  4 Aqualad    TRUE        FALSE          FALSE       FALSE        FALSE       
##  5 Beyonder   FALSE       FALSE          TRUE        FALSE        FALSE       
##  6 Bizarro    TRUE        FALSE          FALSE       FALSE        TRUE        
##  7 Black Abb… FALSE       FALSE          TRUE        FALSE        FALSE       
##  8 Black Adam FALSE       FALSE          TRUE        FALSE        FALSE       
##  9 Black Lig… FALSE       TRUE           FALSE       FALSE        FALSE       
## 10 Black Mam… FALSE       FALSE          FALSE       FALSE        TRUE        
## # … with 102 more rows, and 4 more variables: thirstokinesis <lgl>,
## #   biokinesis <lgl>, terrakinesis <lgl>, vitakinesis <lgl>
```
…
